%YAML 1.1
%TAG !u! tag:unity3d.com,2011:
--- !u!1 &419997227
GameObject:
  m_ObjectHideFlags: 0
  m_CorrespondingSourceObject: {fileID: 0}
  m_PrefabInstance: {fileID: 0}
  m_PrefabAsset: {fileID: 0}
  serializedVersion: 6
  m_Component:
  - component: {fileID: 419997228}
  - component: {fileID: 419997229}
  m_Layer: 0
  m_Name: Center
  m_TagString: Untagged
  m_Icon: {fileID: 0}
  m_NavMeshLayer: 0
  m_StaticEditorFlags: 0
  m_IsActive: 1
--- !u!4 &419997228
Transform:
  m_ObjectHideFlags: 0
  m_CorrespondingSourceObject: {fileID: 0}
  m_PrefabInstance: {fileID: 0}
  m_PrefabAsset: {fileID: 0}
  m_GameObject: {fileID: 419997227}
  m_LocalRotation: {x: 0, y: 0, z: 0, w: 1}
  m_LocalPosition: {x: 0, y: 0, z: 0}
  m_LocalScale: {x: 1, y: 1, z: 1}
  m_Children: []
  m_Father: {fileID: 2063963528197101673}
  m_RootOrder: 4
  m_LocalEulerAnglesHint: {x: 0, y: 0, z: 0}
--- !u!114 &419997229
MonoBehaviour:
  m_ObjectHideFlags: 0
  m_CorrespondingSourceObject: {fileID: 0}
  m_PrefabInstance: {fileID: 0}
  m_PrefabAsset: {fileID: 0}
  m_GameObject: {fileID: 419997227}
  m_Enabled: 1
  m_EditorHideFlags: 0
  m_Script: {fileID: 11500000, guid: ba341532597cb4b5898380491681e45c, type: 3}
  m_Name: 
  m_EditorClassIdentifier: 
  gameData: {fileID: 11400000, guid: e8151430935a84c04ab27a1ac5dd0085, type: 2}
  openingDirection: 0
  fakeSpawn: 1
--- !u!1001 &860632464702268921
PrefabInstance:
  m_ObjectHideFlags: 0
  serializedVersion: 2
  m_Modification:
    m_TransformParent: {fileID: 0}
    m_Modifications:
    - target: {fileID: 615261434853368270, guid: daa0669c9b4f4ef4eac93d3043b139c4, type: 3}
      propertyPath: gameData
      value: 
      objectReference: {fileID: 0}
    - target: {fileID: 1058107972960826798, guid: daa0669c9b4f4ef4eac93d3043b139c4, type: 3}
      propertyPath: m_IsActive
      value: 0
      objectReference: {fileID: 0}
    - target: {fileID: 1068692466149992263, guid: daa0669c9b4f4ef4eac93d3043b139c4, type: 3}
      propertyPath: m_IsActive
      value: 0
      objectReference: {fileID: 0}
    - target: {fileID: 1979287564998808126, guid: daa0669c9b4f4ef4eac93d3043b139c4, type: 3}
      propertyPath: gameData
      value: 
      objectReference: {fileID: 0}
    - target: {fileID: 2226129422072719823, guid: daa0669c9b4f4ef4eac93d3043b139c4, type: 3}
      propertyPath: m_IsActive
      value: 1
      objectReference: {fileID: 0}
    - target: {fileID: 2403573367598381199, guid: daa0669c9b4f4ef4eac93d3043b139c4, type: 3}
      propertyPath: m_IsActive
      value: 0
      objectReference: {fileID: 0}
    - target: {fileID: 3016198905042459469, guid: daa0669c9b4f4ef4eac93d3043b139c4, type: 3}
      propertyPath: m_IsActive
      value: 0
      objectReference: {fileID: 0}
    - target: {fileID: 4113315790576226268, guid: daa0669c9b4f4ef4eac93d3043b139c4, type: 3}
      propertyPath: m_IsActive
      value: 0
      objectReference: {fileID: 0}
    - target: {fileID: 4398620454685165118, guid: daa0669c9b4f4ef4eac93d3043b139c4, type: 3}
      propertyPath: m_RootOrder
      value: 0
      objectReference: {fileID: 0}
    - target: {fileID: 4398620454685165118, guid: daa0669c9b4f4ef4eac93d3043b139c4, type: 3}
      propertyPath: m_LocalPosition.x
      value: 0
      objectReference: {fileID: 0}
    - target: {fileID: 4398620454685165118, guid: daa0669c9b4f4ef4eac93d3043b139c4, type: 3}
      propertyPath: m_LocalPosition.y
      value: 0
      objectReference: {fileID: 0}
    - target: {fileID: 4398620454685165118, guid: daa0669c9b4f4ef4eac93d3043b139c4, type: 3}
      propertyPath: m_LocalPosition.z
      value: 0
      objectReference: {fileID: 0}
    - target: {fileID: 4398620454685165118, guid: daa0669c9b4f4ef4eac93d3043b139c4, type: 3}
      propertyPath: m_LocalRotation.w
      value: 0.7071068
      objectReference: {fileID: 0}
    - target: {fileID: 4398620454685165118, guid: daa0669c9b4f4ef4eac93d3043b139c4, type: 3}
      propertyPath: m_LocalRotation.x
      value: 0.7071068
      objectReference: {fileID: 0}
    - target: {fileID: 4398620454685165118, guid: daa0669c9b4f4ef4eac93d3043b139c4, type: 3}
      propertyPath: m_LocalRotation.y
      value: -0
      objectReference: {fileID: 0}
    - target: {fileID: 4398620454685165118, guid: daa0669c9b4f4ef4eac93d3043b139c4, type: 3}
      propertyPath: m_LocalRotation.z
      value: -0
      objectReference: {fileID: 0}
    - target: {fileID: 4398620454685165118, guid: daa0669c9b4f4ef4eac93d3043b139c4, type: 3}
      propertyPath: m_LocalEulerAnglesHint.x
      value: 90
      objectReference: {fileID: 0}
    - target: {fileID: 4398620454685165118, guid: daa0669c9b4f4ef4eac93d3043b139c4, type: 3}
      propertyPath: m_LocalEulerAnglesHint.y
      value: 0
      objectReference: {fileID: 0}
    - target: {fileID: 4398620454685165118, guid: daa0669c9b4f4ef4eac93d3043b139c4, type: 3}
      propertyPath: m_LocalEulerAnglesHint.z
      value: 0
      objectReference: {fileID: 0}
    - target: {fileID: 5228233058484201613, guid: daa0669c9b4f4ef4eac93d3043b139c4, type: 3}
      propertyPath: gameData
      value: 
      objectReference: {fileID: 0}
    - target: {fileID: 5922072961309084385, guid: daa0669c9b4f4ef4eac93d3043b139c4, type: 3}
      propertyPath: m_Name
      value: ULDR
      objectReference: {fileID: 0}
    - target: {fileID: 5994785285394724999, guid: daa0669c9b4f4ef4eac93d3043b139c4, type: 3}
      propertyPath: m_IsActive
      value: 0
      objectReference: {fileID: 0}
    - target: {fileID: 6127082940404456626, guid: daa0669c9b4f4ef4eac93d3043b139c4, type: 3}
      propertyPath: m_IsActive
      value: 0
      objectReference: {fileID: 0}
    - target: {fileID: 6316594981931907323, guid: daa0669c9b4f4ef4eac93d3043b139c4, type: 3}
      propertyPath: m_IsActive
      value: 1
      objectReference: {fileID: 0}
    - target: {fileID: 6848052319443633121, guid: daa0669c9b4f4ef4eac93d3043b139c4, type: 3}
      propertyPath: gameData
      value: 
      objectReference: {fileID: 0}
    - target: {fileID: 7210778318761383897, guid: daa0669c9b4f4ef4eac93d3043b139c4, type: 3}
      propertyPath: m_IsActive
      value: 0
      objectReference: {fileID: 0}
    - target: {fileID: 9072214188097107110, guid: daa0669c9b4f4ef4eac93d3043b139c4, type: 3}
      propertyPath: m_IsActive
      value: 1
      objectReference: {fileID: 0}
    - target: {fileID: 9084344420609996833, guid: daa0669c9b4f4ef4eac93d3043b139c4, type: 3}
      propertyPath: m_IsActive
      value: 1
      objectReference: {fileID: 0}
    m_RemovedComponents: []
  m_SourcePrefab: {fileID: 100100000, guid: daa0669c9b4f4ef4eac93d3043b139c4, type: 3}
--- !u!4 &2063963528197101673 stripped
Transform:
  m_CorrespondingSourceObject: {fileID: 1681319640320687504, guid: daa0669c9b4f4ef4eac93d3043b139c4, type: 3}
  m_PrefabInstance: {fileID: 860632464702268921}
  m_PrefabAsset: {fileID: 0}
