%YAML 1.1
%TAG !u! tag:unity3d.com,2011:
--- !u!1001 &966697023501867667
PrefabInstance:
  m_ObjectHideFlags: 0
  serializedVersion: 2
  m_Modification:
    m_TransformParent: {fileID: 0}
    m_Modifications:
    - target: {fileID: 438502285899041004, guid: daa0669c9b4f4ef4eac93d3043b139c4, type: 3}
      propertyPath: m_IsActive
      value: 0
      objectReference: {fileID: 0}
    - target: {fileID: 1068692466149992263, guid: daa0669c9b4f4ef4eac93d3043b139c4, type: 3}
      propertyPath: m_IsActive
      value: 0
      objectReference: {fileID: 0}
    - target: {fileID: 2226129422072719823, guid: daa0669c9b4f4ef4eac93d3043b139c4, type: 3}
      propertyPath: m_IsActive
      value: 1
      objectReference: {fileID: 0}
    - target: {fileID: 2403573367598381199, guid: daa0669c9b4f4ef4eac93d3043b139c4, type: 3}
      propertyPath: m_IsActive
      value: 0
      objectReference: {fileID: 0}
    - target: {fileID: 4113315790576226268, guid: daa0669c9b4f4ef4eac93d3043b139c4, type: 3}
      propertyPath: m_IsActive
      value: 0
      objectReference: {fileID: 0}
    - target: {fileID: 4398620454685165118, guid: daa0669c9b4f4ef4eac93d3043b139c4, type: 3}
      propertyPath: m_RootOrder
      value: 0
      objectReference: {fileID: 0}
    - target: {fileID: 4398620454685165118, guid: daa0669c9b4f4ef4eac93d3043b139c4, type: 3}
      propertyPath: m_LocalPosition.x
      value: 0
      objectReference: {fileID: 0}
    - target: {fileID: 4398620454685165118, guid: daa0669c9b4f4ef4eac93d3043b139c4, type: 3}
      propertyPath: m_LocalPosition.y
      value: 0
      objectReference: {fileID: 0}
    - target: {fileID: 4398620454685165118, guid: daa0669c9b4f4ef4eac93d3043b139c4, type: 3}
      propertyPath: m_LocalPosition.z
      value: 0
      objectReference: {fileID: 0}
    - target: {fileID: 4398620454685165118, guid: daa0669c9b4f4ef4eac93d3043b139c4, type: 3}
      propertyPath: m_LocalRotation.w
      value: 0.7071068
      objectReference: {fileID: 0}
    - target: {fileID: 4398620454685165118, guid: daa0669c9b4f4ef4eac93d3043b139c4, type: 3}
      propertyPath: m_LocalRotation.x
      value: 0.7071068
      objectReference: {fileID: 0}
    - target: {fileID: 4398620454685165118, guid: daa0669c9b4f4ef4eac93d3043b139c4, type: 3}
      propertyPath: m_LocalRotation.y
      value: 0
      objectReference: {fileID: 0}
    - target: {fileID: 4398620454685165118, guid: daa0669c9b4f4ef4eac93d3043b139c4, type: 3}
      propertyPath: m_LocalRotation.z
      value: 0
      objectReference: {fileID: 0}
    - target: {fileID: 4398620454685165118, guid: daa0669c9b4f4ef4eac93d3043b139c4, type: 3}
      propertyPath: m_LocalEulerAnglesHint.x
      value: 90
      objectReference: {fileID: 0}
    - target: {fileID: 4398620454685165118, guid: daa0669c9b4f4ef4eac93d3043b139c4, type: 3}
      propertyPath: m_LocalEulerAnglesHint.y
      value: 0
      objectReference: {fileID: 0}
    - target: {fileID: 4398620454685165118, guid: daa0669c9b4f4ef4eac93d3043b139c4, type: 3}
      propertyPath: m_LocalEulerAnglesHint.z
      value: 0
      objectReference: {fileID: 0}
    - target: {fileID: 5922072961309084385, guid: daa0669c9b4f4ef4eac93d3043b139c4, type: 3}
      propertyPath: m_Name
      value: ULR
      objectReference: {fileID: 0}
    - target: {fileID: 5994785285394724999, guid: daa0669c9b4f4ef4eac93d3043b139c4, type: 3}
      propertyPath: m_IsActive
      value: 0
      objectReference: {fileID: 0}
    - target: {fileID: 6127082940404456626, guid: daa0669c9b4f4ef4eac93d3043b139c4, type: 3}
      propertyPath: m_IsActive
      value: 0
      objectReference: {fileID: 0}
    - target: {fileID: 7210778318761383897, guid: daa0669c9b4f4ef4eac93d3043b139c4, type: 3}
      propertyPath: m_IsActive
      value: 0
      objectReference: {fileID: 0}
    - target: {fileID: 9072214188097107110, guid: daa0669c9b4f4ef4eac93d3043b139c4, type: 3}
      propertyPath: m_IsActive
      value: 1
      objectReference: {fileID: 0}
    - target: {fileID: 9084344420609996833, guid: daa0669c9b4f4ef4eac93d3043b139c4, type: 3}
      propertyPath: m_IsActive
      value: 1
      objectReference: {fileID: 0}
    m_RemovedComponents: []
  m_SourcePrefab: {fileID: 100100000, guid: daa0669c9b4f4ef4eac93d3043b139c4, type: 3}
